import java.util.*;
  
  public class Main{
  
  public static void main(String[] args) {
    // write your code here  
    Scanner s=new Scanner(System.in);
    int n=s.nextInt();
    long t=1;
    int i,j=n;
    
    for(i=0;n!=0;i++)
    {
        n/=10;
        t*=10;
    }
    t/=10;
    //System.out.println(j/t);
    for(i=0;t!=0;i++)
    {
        System.out.println(j/t);
        j%=t;
        t/=10;
    }
    
   }
  }