import java.util.*;

public class Main {

    public static void main(String[] args) {
        // write your code here 
        Scanner s=new Scanner(System.in);
        int n=s.nextInt(),m=s.nextInt();
        int hcf=1;
        int lcm=1;
        for(i=2;i<=m||i<=n;i++)
        {
            if(n%i==0&&m%i==0)
            {
                //System.out.println(i);
                hcf=i;
                lcm=n/hcf;
                lcm*=m;
                x/=i;
                y/=i;
            }
        }
        System.out.println(hcf);
        System.out.println(lcm);
    }
}