import java.io.*;
import java.util.*;

public class Main {
   static class Edge {
      int src;
      int nbr;
      int wt;

      Edge(int src, int nbr, int wt) {
         this.src = src;
         this.nbr = nbr;
         this.wt = wt;
      }
   }

   public static void main(String[] args) throws Exception {
      BufferedReader br = new BufferedReader(new InputStreamReader(System.in));

      int vtces = Integer.parseInt(br.readLine());
      ArrayList<Edge>[] graph = new ArrayList[vtces];
      for (int i = 0; i < vtces; i++) {
         graph[i] = new ArrayList<>();
      }

      int edges = Integer.parseInt(br.readLine());
      for (int i = 0; i < edges; i++) {
         String[] parts = br.readLine().split(" ");
         int v1 = Integer.parseInt(parts[0]);
         int v2 = Integer.parseInt(parts[1]);
         int wt = Integer.parseInt(parts[2]);
         graph[v1].add(new Edge(v1, v2, wt));
         graph[v2].add(new Edge(v2, v1, wt));
      }

      // write your code here
      System.out.println(iscyclic(graph));
   }
   
   public static boolean iscyclic(ArrayList<Edge>[] graph){
       boolean visited[]=new boolean[graph.length];
       for(int i=0;i<graph.length;i++)
        if(!visited[i]){
            if(iscyclic(graph,visited,i)){
                return true;
            }
        }
        return false;
   }
   
   public static boolean iscyclic(ArrayList<Edge>[] graph,boolean visited[],int src){
       Queue<Integer> queue=new ArrayDeque<>();
       queue.add(src);
       
       while(queue.size()>0){
           int vtx=queue.remove();
           if(!visited[vtx]){
               visited[vtx]=true;
               for(Edge e:graph[vtx]){
                   if(!visited[e.nbr])
                        queue.add(e.nbr);
               }
           }
           else
            return true;
            
       }
       return false;
   }
}







